Problem set 4
…
deaths <- request(deaths_url) |>
  req_url_query(`$limit` = 10000000000) |>
  req_perform() |>
  resp_body_json(simplifyVector = TRUE) |>
  as_tibble() |>
  select(state, date = end_date, deaths = covid_19_deaths) |>
  mutate(
    date = as.Date(date),
    deaths = as.numeric(deaths)
  ) |>
  filter(!is.na(deaths), !(state %in% c("United States", "New York City", "District of Columbia", "Puerto Rico"))) #filter out non-state entities
deaths

# A tibble: 90,626 × 3
   state   date       deaths
   <chr>   <date>      <dbl>
 1 Alabama 2023-09-23  21520
 2 Alabama 2023-09-23     19
 3 Alabama 2023-09-23     46
 4 Alabama 2023-09-23    142
 5 Alabama 2023-09-23    267
 6 Alabama 2023-09-23    416
 7 Alabama 2023-09-23    670
 8 Alabama 2023-09-23   1053
 9 Alabama 2023-09-23   1628
10 Alabama 2023-09-23   4563
# ℹ 90,616 more rows
…
